{
	"Modules": [{
			"name": "MainThread"
		},
		{
			"name": "HttpClient",
			"Secure": true,
			"RestApiServer": "https://api.exchangeratesapi.io",
			"LatestDataPath": "/latest?base=",
			"SleepBetweenAPICallsMs": 10000
		},
		{
			"name": "CurrencyAPI",
			"Currencies": [
				"USD",
				"CAD",
				"CZK",
				"INR",
				"EUR",
				"GBP",
				"THB"
			]
		},
		{
      "name": "ForexAnalyzer",
	  "SleepBetweenCheckForNewData": 50,
	  "MaxDepth": 3,
	  "UseStdNumericThreshold": "false",
	  "UserDefinedThreshold": 0.000001
		}
	]
}